-- Merging decision tree log ---
manifest
ADDED from /usr/local/Caskroom/flutter/2.5.0/flutter/.pub-cache/hosted/pub.dartlang.org/webview_flutter_android-2.2.1/android/src/main/AndroidManifest.xml:1:1-2:12
INJECTED from /usr/local/Caskroom/flutter/2.5.0/flutter/.pub-cache/hosted/pub.dartlang.org/webview_flutter_android-2.2.1/android/src/main/AndroidManifest.xml:1:1-2:12
INJECTED from /usr/local/Caskroom/flutter/2.5.0/flutter/.pub-cache/hosted/pub.dartlang.org/webview_flutter_android-2.2.1/android/src/main/AndroidManifest.xml:1:1-2:12
	package
		ADDED from /usr/local/Caskroom/flutter/2.5.0/flutter/.pub-cache/hosted/pub.dartlang.org/webview_flutter_android-2.2.1/android/src/main/AndroidManifest.xml:1:11-54
		INJECTED from /usr/local/Caskroom/flutter/2.5.0/flutter/.pub-cache/hosted/pub.dartlang.org/webview_flutter_android-2.2.1/android/src/main/AndroidManifest.xml
		INJECTED from /usr/local/Caskroom/flutter/2.5.0/flutter/.pub-cache/hosted/pub.dartlang.org/webview_flutter_android-2.2.1/android/src/main/AndroidManifest.xml
	xmlns:android
		ADDED from /usr/local/Caskroom/flutter/2.5.0/flutter/.pub-cache/hosted/pub.dartlang.org/webview_flutter_android-2.2.1/android/src/main/AndroidManifest.xml:1:1-2:12
uses-sdk
INJECTED from /usr/local/Caskroom/flutter/2.5.0/flutter/.pub-cache/hosted/pub.dartlang.org/webview_flutter_android-2.2.1/android/src/main/AndroidManifest.xml reason: use-sdk injection requested
INJECTED from /usr/local/Caskroom/flutter/2.5.0/flutter/.pub-cache/hosted/pub.dartlang.org/webview_flutter_android-2.2.1/android/src/main/AndroidManifest.xml
INJECTED from /usr/local/Caskroom/flutter/2.5.0/flutter/.pub-cache/hosted/pub.dartlang.org/webview_flutter_android-2.2.1/android/src/main/AndroidManifest.xml
	android:minSdkVersion
		INJECTED from /usr/local/Caskroom/flutter/2.5.0/flutter/.pub-cache/hosted/pub.dartlang.org/webview_flutter_android-2.2.1/android/src/main/AndroidManifest.xml
		ADDED from /usr/local/Caskroom/flutter/2.5.0/flutter/.pub-cache/hosted/pub.dartlang.org/webview_flutter_android-2.2.1/android/src/main/AndroidManifest.xml
		INJECTED from /usr/local/Caskroom/flutter/2.5.0/flutter/.pub-cache/hosted/pub.dartlang.org/webview_flutter_android-2.2.1/android/src/main/AndroidManifest.xml
